{
    "repo": "TypeScript",
    "type": "json",
    "dry": false,
    "debug": true,
    "code": 200,
    "meta": {
      "pagination": {
        "total": 1438,
        "pages": 72,
        "page": 1,
        "limit": 20
      }
    },
    "data": [{
        "id": 2,
        "post_id": 6,
        "user_id": 8,
        "body": "Ipsum molestias temporibus. Saepe debitis nihil. In culpa quod.",
        "created_at": "2020-10-21T03:50:04.706+05:30",
        "updated_at": "2020-10-21T03:50:04.706+05:30"
      },
      {
        "id": 4,
        "post_id": 8,
        "user_id": 9,
        "body": "Quia inventore quis.",
        "created_at": "2020-10-21T03:50:04.760+05:30",
        "updated_at": "2020-10-21T03:50:04.760+05:30"
      },
      {
        "id": 5,
        "post_id": 8,
        "user_id": 6,
        "body": "Magni provident ut. Consequatur et impedit.",
        "created_at": "2020-10-21T03:50:04.762+05:30",
        "updated_at": "2020-10-21T03:50:04.762+05:30"
      },
      {
        "id": 7,
        "post_id": 10,
        "user_id": 25,
        "body": "Amet est et.",
        "created_at": "2020-10-21T03:50:04.790+05:30",
        "updated_at": "2020-10-21T03:50:04.790+05:30"
      },
      {
        "id": 9,
        "post_id": 12,
        "user_id": 32,
        "body": "Commodi itaque excepturi. Assumenda et consequatur.",
        "created_at": "2020-10-21T03:50:04.830+05:30",
        "updated_at": "2020-10-21T03:50:04.830+05:30"
      },
      {
        "id": 11,
        "post_id": 15,
        "user_id": 45,
        "body": "Eveniet culpa dolor.",
        "created_at": "2020-10-21T03:50:04.884+05:30",
        "updated_at": "2020-10-21T03:50:04.884+05:30"
      },
      {
        "id": 12,
        "post_id": 15,
        "user_id": 38,
        "body": "Vel eum modi.",
        "created_at": "2020-10-21T03:50:04.887+05:30",
        "updated_at": "2020-10-21T03:50:04.887+05:30"
      },
      {
        "id": 13,
        "post_id": 16,
        "user_id": 34,
        "body": "Magnam facere ut. Sit reprehenderit id. Voluptas dolorem rem. Hic quo eveniet.",
        "created_at": "2020-10-21T03:50:04.897+05:30",
        "updated_at": "2020-10-21T03:50:04.897+05:30"
      },
      {
        "id": 14,
        "post_id": 18,
        "user_id": 25,
        "body": "Corrupti consectetur maxime. Qui sapiente ad. Et qui et. Ipsam qui placeat.",
        "created_at": "2020-10-21T03:50:04.935+05:30",
        "updated_at": "2020-10-21T03:50:04.935+05:30"
      },
      {
        "id": 15,
        "post_id": 18,
        "user_id": 34,
        "body": "Eos dolor aut.",
        "created_at": "2020-10-21T03:50:04.938+05:30",
        "updated_at": "2020-10-21T03:50:04.938+05:30"
      },
      {
        "id": 16,
        "post_id": 19,
        "user_id": 46,
        "body": "Praesentium suscipit qui. Deleniti velit aut. Vel sed quod.",
        "created_at": "2020-10-21T03:50:04.962+05:30",
        "updated_at": "2020-10-21T03:50:04.962+05:30"
      },
      {
        "id": 17,
        "post_id": 20,
        "user_id": 23,
        "body": "Modi nisi culpa. Aut quisquam odit. Reiciendis totam ut.",
        "created_at": "2020-10-21T03:50:04.979+05:30",
        "updated_at": "2020-10-21T03:50:04.979+05:30"
      },
      {
        "id": 18,
        "post_id": 21,
        "user_id": 27,
        "body": "Accusamus facilis ullam. Suscipit consectetur qui. Aut exercitationem tenetur. Velit quia et.",
        "created_at": "2020-10-21T03:50:04.989+05:30",
        "updated_at": "2020-10-21T03:50:04.989+05:30"
      },
      {
        "id": 19,
        "post_id": 21,
        "user_id": 31,
        "body": "Natus sint voluptate. Nemo exercitationem dolore.",
        "created_at": "2020-10-21T03:50:04.991+05:30",
        "updated_at": "2020-10-21T03:50:04.991+05:30"
      },
      {
        "id": 20,
        "post_id": 22,
        "user_id": 14,
        "body": "Aliquam quibusdam incidunt. Assumenda culpa illum.",
        "created_at": "2020-10-21T03:50:05.009+05:30",
        "updated_at": "2020-10-21T03:50:05.009+05:30"
      },
      {
        "id": 21,
        "post_id": 25,
        "user_id": 13,
        "body": "Qui repudiandae temporibus. Aut aut dolores. Quaerat non unde.",
        "created_at": "2020-10-21T03:50:05.065+05:30",
        "updated_at": "2020-10-21T03:50:05.065+05:30"
      },
      {
        "id": 22,
        "post_id": 25,
        "user_id": 12,
        "body": "Explicabo voluptas accusantium.",
        "created_at": "2020-10-21T03:50:05.068+05:30",
        "updated_at": "2020-10-21T03:50:05.068+05:30"
      },
      {
        "id": 23,
        "post_id": 26,
        "user_id": 10,
        "body": "Fuga eum commodi. Quae sunt sequi. Et blanditiis animi. Asperiores dignissimos provident.",
        "created_at": "2020-10-21T03:50:05.084+05:30",
        "updated_at": "2020-10-21T03:50:05.084+05:30"
      },
      {
        "id": 24,
        "post_id": 26,
        "user_id": 36,
        "body": "Qui itaque ut. Repudiandae quaerat cupiditate.",
        "created_at": "2020-10-21T03:50:05.087+05:30",
        "updated_at": "2020-10-21T03:50:05.087+05:30"
      },
      {
        "id": 25,
        "post_id": 28,
        "user_id": 39,
        "body": "Nobis qui blanditiis. Magni quo et. Atque repudiandae illo.",
        "created_at": "2020-10-21T03:50:05.104+05:30",
        "updated_at": "2020-10-21T03:50:05.104+05:30"
      },
      {
        "id": 26,
        "post_id": 29,
        "user_id": 42,
        "body": "Voluptatem consequuntur nobis.",
        "created_at": "2020-10-21T03:50:05.112+05:30",
        "updated_at": "2020-10-21T03:50:05.112+05:30"
      },
      {
        "id": 27,
        "post_id": 31,
        "user_id": 43,
        "body": "Sequi quia rerum.",
        "created_at": "2020-10-21T03:50:05.128+05:30",
        "updated_at": "2020-10-21T03:50:05.128+05:30"
      },
      {
        "id": 28,
        "post_id": 32,
        "user_id": 46,
        "body": "Dolorem illo qui.",
        "created_at": "2020-10-21T03:50:05.149+05:30",
        "updated_at": "2020-10-21T03:50:05.149+05:30"
      },
      {
        "id": 29,
        "post_id": 33,
        "user_id": 48,
        "body": "Debitis sunt expedita. Culpa aut et.",
        "created_at": "2020-10-21T03:50:05.164+05:30",
        "updated_at": "2020-10-21T03:50:05.164+05:30"
      },
      {
        "id": 30,
        "post_id": 34,
        "user_id": 47,
        "body": "Modi officia nemo.",
        "created_at": "2020-10-21T03:50:05.196+05:30",
        "updated_at": "2020-10-21T03:50:05.196+05:30"
      },
      {
        "id": 31,
        "post_id": 35,
        "user_id": 36,
        "body": "Cupiditate sit id.",
        "created_at": "2020-10-21T03:50:05.226+05:30",
        "updated_at": "2020-10-21T03:50:05.226+05:30"
      },
      {
        "id": 32,
        "post_id": 35,
        "user_id": 16,
        "body": "Ut magni numquam. Aut doloremque earum. Consequuntur reprehenderit distinctio.",
        "created_at": "2020-10-21T03:50:05.229+05:30",
        "updated_at": "2020-10-21T03:50:05.229+05:30"
      },
      {
        "id": 33,
        "post_id": 36,
        "user_id": 44,
        "body": "Nobis facere qui. Facere esse architecto.",
        "created_at": "2020-10-21T03:50:05.236+05:30",
        "updated_at": "2020-10-21T03:50:05.236+05:30"
      },
      {
        "id": 34,
        "post_id": 36,
        "user_id": 46,
        "body": "Fuga quia fugit.",
        "created_at": "2020-10-21T03:50:05.239+05:30",
        "updated_at": "2020-10-21T03:50:05.239+05:30"
      },
      {
        "id": 35,
        "post_id": 37,
        "user_id": 16,
        "body": "Ab at perspiciatis.",
        "created_at": "2020-10-21T03:50:05.265+05:30",
        "updated_at": "2020-10-21T03:50:05.265+05:30"
      },
      {
        "id": 36,
        "post_id": 37,
        "user_id": 16,
        "body": "Aperiam fuga consequuntur. Est atque qui. Odio est labore.",
        "created_at": "2020-10-21T03:50:05.268+05:30",
        "updated_at": "2020-10-21T03:50:05.268+05:30"
      },
      {
        "id": 37,
        "post_id": 38,
        "user_id": 25,
        "body": "Aut cumque incidunt.",
        "created_at": "2020-10-21T03:50:05.276+05:30",
        "updated_at": "2020-10-21T03:50:05.276+05:30"
      },
      {
        "id": 38,
        "post_id": 39,
        "user_id": 20,
        "body": "Laborum omnis neque. Sed molestiae veritatis.",
        "created_at": "2020-10-21T03:50:05.294+05:30",
        "updated_at": "2020-10-21T03:50:05.294+05:30"
      },
      {
        "id": 39,
        "post_id": 40,
        "user_id": 18,
        "body": "Qui deleniti consequuntur.",
        "created_at": "2020-10-21T03:50:05.319+05:30",
        "updated_at": "2020-10-21T03:50:05.319+05:30"
      },
      {
        "id": 40,
        "post_id": 42,
        "user_id": 30,
        "body": "Ipsa aut quam.",
        "created_at": "2020-10-21T03:50:05.343+05:30",
        "updated_at": "2020-10-21T03:50:05.343+05:30"
      },
      {
        "id": 41,
        "post_id": 43,
        "user_id": 35,
        "body": "Id totam beatae. Ullam cupiditate impedit. Provident id est. Laborum ab neque.",
        "created_at": "2020-10-21T03:50:05.354+05:30",
        "updated_at": "2020-10-21T03:50:05.354+05:30"
      },
      {
        "id": 42,
        "post_id": 44,
        "user_id": 12,
        "body": "Possimus expedita voluptatem. A molestias vitae. Dolorem quaerat omnis.",
        "created_at": "2020-10-21T03:50:05.376+05:30",
        "updated_at": "2020-10-21T03:50:05.376+05:30"
      },
      {
        "id": 43,
        "post_id": 44,
        "user_id": 9,
        "body": "Nobis corrupti et.",
        "created_at": "2020-10-21T03:50:05.379+05:30",
        "updated_at": "2020-10-21T03:50:05.379+05:30"
      },
      {
        "id": 45,
        "post_id": 45,
        "user_id": 11,
        "body": "Delectus nostrum officia.",
        "created_at": "2020-10-21T03:50:05.409+05:30",
        "updated_at": "2020-10-21T03:50:05.409+05:30"
      },
      {
        "id": 46,
        "post_id": 47,
        "user_id": 16,
        "body": "Dolor accusantium harum. Nulla est id. Aut omnis eos. Dolorum aut et.",
        "created_at": "2020-10-21T03:50:05.431+05:30",
        "updated_at": "2020-10-21T03:50:05.431+05:30"
      }
    ]
  }