{
  "repo": "TypeScript",
  "type": "json",
  "debug": true,
  "code": 200,
  "meta": {
    "pagination": { "total": 1428, "pages": 72, "page": 1, "limit": 20 }
  },
  "data": [
    {
      "id": 3,
      "user_id": 6,
      "title": "Spero sit aequus quibusdam capio vester aptus cognomen suscipio.",
      "body": "Ea uter vetus. Cras vero auris. Caelestis cunabula praesentium. Curis quia cohors. Tepesco tubineus admitto. Villa turpis basium. Sed cultellus decipio. Defungo pauper subvenio. Veritatis neque artificiose. Cui veritatis cohibeo. Dedico dolore consequatur. Arcesso despirmatio solium. Calcar maxime tricesimus. Sufficio conservo sulum. Tutis cavus sit. Adipisci defetiscor varius. Coadunatio thema ventus. Audentia ustulo terga.",
      "created_at": "2020-10-21T03:50:04.655+05:30",
      "updated_at": "2020-10-21T03:50:04.655+05:30"
    },
    {
      "id": 4,
      "user_id": 6,
      "title": "Asperiores stultus desolo vacuus adflicto deleniti sequi carmen tardus ceno tabula unde nisi.",
      "body": "Angelus arguo audeo. Venustas abstergo aestas. Calamitas candidus desino. Tabella adeo ut. Trucido cubitum aetas. Aperio vitiosus vomito. Deprimo odit alter. Libero cognomen cuppedia. Colligo video triumphus. Amitto annus substantia. Avarus apud venustas. Bene addo quaerat. Collum dolor laudantium. Modi adulescens sunt. Natus voluntarius contra. Aegrus delicate audacia. Timidus casso degero. Arto turbo stella. Despirmatio cubicularis debeo. Urbanus pariatur vestrum. Umerus tergum ut. Sursum consequatur catena. In adstringo vergo. Tenuis cresco delibero. Harum abstergo adflicto. Repellendus civitas bene. Commodi stips deporto. Itaque corroboro callide. Magni argumentum conqueror.",
      "created_at": "2020-10-21T03:50:04.662+05:30",
      "updated_at": "2020-10-21T03:50:04.662+05:30"
    },
    {
      "id": 5,
      "user_id": 9,
      "title": "Quo molestias tam defleo et eius subito sursum degusto decimus virtus magni terra.",
      "body": "Adficio caritas cunabula. Quidem cubo vox. Alii thymum tondeo. Succedo commodo vitiosus. Vivo vilicus despirmatio. Terror desolo sursum. Adipiscor caecus est. Sumptus clamo quod. Verbum capto considero. Nisi ambitus decor. Arguo comes adinventitias. Aperio tristis delinquo. Aut textus nam. Velum ad acidus. Tutamen similique ipsam. Ipsa aegrus arguo. Spoliatio substantia volup. Velum pecus terra.",
      "created_at": "2020-10-21T03:50:04.695+05:30",
      "updated_at": "2020-10-21T03:50:04.695+05:30"
    },
    {
      "id": 6,
      "user_id": 9,
      "title": "Quos cunctatio annus votum sufficio cognomen voluptatibus ascisco celer.",
      "body": "Adultus tenetur armarium. Spoliatio decipio bellum. Ter tenetur tyrannus. Depromo acidus tum. Arguo delibero trucido. Curtus abscido accusamus. Vilis creo volubilis. Terminatio exercitationem armo. Tolero colo confido. Voluntarius excepturi delicate. Supplanto depromo aperte. Repudiandae pecunia tersus. Laudantium consequatur cultellus. Volaticus ultio adeo. Vetus adnuo amoveo. Ipsa aliquam textilis. Turba paulatim confugo. Cubitum vilitas labore. Vix canonicus aggredior. Bardus aegrus verto. Cicuta apto depereo. Tonsor sed qui.",
      "created_at": "2020-10-21T03:50:04.702+05:30",
      "updated_at": "2020-10-21T03:50:04.702+05:30"
    },
    {
      "id": 7,
      "user_id": 10,
      "title": "Consuasor tolero consequatur torqueo alias surculus eveniet ut sed thymbra dens utique aedificium necessitatibus cito capitulus audeo condico.",
      "body": "Vulpes voluptatem sint. Vix cui sit. Curo attonbitus pel. Sortitus volo cattus. Expedita vorax stultus. Cribro cernuus quas. Consectetur carmen unde. Praesentium doloribus adduco. Cras qui videlicet. Bis tredecim cum. Dolores termes caelum. Terror crebro thymbra. Sursum facilis claudeo. Solium aggero viridis. Amplitudo surgo cogito. Bardus denuncio talis. Est colligo canis. Comedo cauda corpus. Aut aperiam theca. Corporis et dolore. Ager velum debeo. Barba thesaurus sed.",
      "created_at": "2020-10-21T03:50:04.719+05:30",
      "updated_at": "2020-10-21T03:50:04.719+05:30"
    },
    {
      "id": 8,
      "user_id": 15,
      "title": "Tempora demulceo debitis dedico audentia harum vis fuga ulciscor aut adnuo totus vomito.",
      "body": "Commodo tres debeo. Qui non repudiandae. Amplitudo consequatur speculum. Conicio thalassinus totidem. Cubo comminor adaugeo. Ipsam cena acquiro. Approbo mollitia vomica. Amet claro tempus. Aut aggredior tamen. Possimus cetera atqui. Dolores culpa tibi. Celo vulticulus valens. Contego patria ventosus. Tredecim quis coma. Nesciunt xiphias velit. Minus cubo accendo. Vilis stillicidium tollo. Cado cur valeo. Quia callide adsum. Civitas subseco trepide. Clarus annus vehemens. Barba valetudo utor. Defendo id quo. Volutabrum calcar velut. Summopere pax eos. Utpote baiulus ambulo. Verto aut quo. Tum quis voluptatibus. Voluptates adulescens patruus.",
      "created_at": "2020-10-21T03:50:04.756+05:30",
      "updated_at": "2020-10-21T03:50:04.756+05:30"
    },
    {
      "id": 9,
      "user_id": 16,
      "title": "Clam aeger adhuc curvo victus degenero.",
      "body": "Aut ait atqui. Delego despecto colo. Accusator deinde spargo. Utique cenaculum arcesso. Sub amplitudo bellicus. Despirmatio vindico admoneo. Altus quas tempus. Vespillo vulnus crinis. Titulus unde undique. Ars absum aequus. Desidero artificiose vulgaris. Ipsam vulgaris baiulus. Sufficio spes cometes. Derideo defaeco beatus. Abduco adopto cuppedia. Subiungo volutabrum crur. Canonicus studio sequi. Non cunae succurro. Rerum voco quas. Atqui aestivus distinctio. Crur voluntarius non. Sulum adversus vulticulus. Casso tepesco et. Delinquo reiciendis cribro. Patruus comitatus bestia. Cur desino aestivus. Suscipio theatrum similique. Quo canonicus valeo.",
      "created_at": "2020-10-21T03:50:04.778+05:30",
      "updated_at": "2020-10-21T03:50:04.778+05:30"
    },
    {
      "id": 10,
      "user_id": 16,
      "title": "Clementia et amicitia temeritas acquiro turpe voluptatem terreo soluta vapulus aut defigo adopto utroque tam annus.",
      "body": "Acidus bestia delicate. Abutor utpote accipio. Doloribus eius vulticulus. Uredo sint catena. Tertius aetas universe. Cupiditas decimus atrox. Subseco laboriosam clementia. Admoveo denuo contra. Voluptatem solutio apparatus. Temporibus coruscus dolor. Summopere arcesso solvo. Temperantia bene corrigo. Tero tabernus aveho. Appono cado attero. Bestia adstringo angelus. Angustus arca adultus. Vester admiratio cinis. Desidero careo callide. Crinis astrum catena. Tolero et acer. Cubo argentum umerus. Vaco abscido volubilis. Tui doloremque ter.",
      "created_at": "2020-10-21T03:50:04.787+05:30",
      "updated_at": "2020-10-21T03:50:04.787+05:30"
    },
    {
      "id": 11,
      "user_id": 17,
      "title": "Omnis vitae accendo volva conicio adopto auctor talus aestas victoria textor suasoria verbera.",
      "body": "Allatus vilicus tubineus. Adduco consequatur tantillus. Totidem concedo vel. Tabgo decor comptus. Bardus eum aeternus. Terebro ullus provident. Coerceo creta aeneus. Circumvenio decet virgo. Volaticus reprehenderit suffragium. Conservo caelestis alius. Cattus annus timidus. Trado constans vomica. Animi aetas volva. Tertius correptius derideo. Autem pauper tyrannus. Casso veniam cognomen.",
      "created_at": "2020-10-21T03:50:04.805+05:30",
      "updated_at": "2020-10-21T03:50:04.805+05:30"
    },
    {
      "id": 12,
      "user_id": 19,
      "title": "Adfero volup causa conscendo decor tum degero torrens conculco sit vociferor dedecor strues vox adhuc coepi absens acervus sustineo.",
      "body": "Cresco id acies. Quas vivo commodi. Caelestis voluptatibus trucido. Totus vox tabesco. Pel fugit vinculum. Urbs depopulo adhaero. Neque sed thesaurus. Sol adultus tracto. Tardus cras totus. Decet infit bibo. Vulgus collum talio. Cohors cupressus velociter. Non statim curo. Ubi venia comitatus. Ipsum tenuis alias. Aliquid adopto vitae.",
      "created_at": "2020-10-21T03:50:04.827+05:30",
      "updated_at": "2020-10-21T03:50:04.827+05:30"
    },
    {
      "id": 13,
      "user_id": 20,
      "title": "Una benigne aut clementia arcesso suggero teneo decimus nostrum sopor ulterius absum cunabula voluptatem peccatus bestia.",
      "body": "Iste incidunt adnuo. Traho corrumpo delicate. Tepesco videlicet uterque. Auxilium amitto patria. Adhaero audeo auditor. Deleniti acies deputo. Subnecto atque vita. Rem voluptatem solvo. Omnis acidus turpis. Ventosus adopto suppono. Tondeo amor aestivus. Textilis audax utor. Stultus quibusdam vis. Deserunt crebro curia. Contego molestiae surculus. Vultuosus debeo aut. Pectus maxime adaugeo. Vix advoco viduata. Appositus tutamen aequus. Decerno veniam aetas. Creta pecus soleo. Surculus abscido tantum. Cogo nulla quos. Absum quibusdam modi. Tamisium verto vero. Communis ut utroque. Arbor strues cohibeo.",
      "created_at": "2020-10-21T03:50:04.845+05:30",
      "updated_at": "2020-10-21T03:50:04.845+05:30"
    },
    {
      "id": 15,
      "user_id": 23,
      "title": "Avaritia ea adipisci stillicidium tametsi comminor illum curvus.",
      "body": "Templum abscido abstergo. Pel cui tubineus. Cervus caelestis astrum. Ara advenio defero. Adaugeo paulatim trado. Conventus repudiandae defigo. Timor trepide illo. Quam theca ex. Dolor vinitor comburo. Sint demo deleo. Distinctio occaecati aperte. Architecto ultra subiungo. Curis ustulo ea. Rem cohibeo tabernus. Ubi aut sto. Est combibo tepidus. Voluptatem rerum victus. Aperiam amplus consequatur.",
      "created_at": "2020-10-21T03:50:04.881+05:30",
      "updated_at": "2020-10-21T03:50:04.881+05:30"
    },
    {
      "id": 16,
      "user_id": 23,
      "title": "Deduco nihil eius distinctio voluptatem acer praesentium ultio somnus.",
      "body": "Voluptate cunae repellendus. Nam decor vultuosus. Mollitia vulgaris pauci. Bellicus strenuus laboriosam. Autem vereor consectetur. Et acies totam. Trado impedit distinctio. Suadeo sit copiose. Atavus audacia tempus. Id testimonium defigo. Autem aurum sto. Adduco taceo usitas. Vapulus suppellex calculus. Terreo defendo cariosus. Taedium labore approbo. Cauda vel est. Rerum deinde desparatus. Aestivus utrum ocer. Demitto antea ultio. Doloremque desolo volo. Thesaurus teres minima. Vilitas theologus tamdiu. Ambitus tabesco suadeo. Ea cilicium error. Combibo commodo avarus. Supplanto vulnero voluptatibus. Quo suscipit admitto. Corroboro tubineus vel. Eos vulgus dolorem.",
      "created_at": "2020-10-21T03:50:04.894+05:30",
      "updated_at": "2020-10-21T03:50:04.894+05:30"
    },
    {
      "id": 17,
      "user_id": 26,
      "title": "Quia surculus tergo omnis debeo tepidus supra ulterius itaque carpo concedo concido conor.",
      "body": "Aperte aequitas demoror. Defaeco subiungo cauda. Angustus coma vulgivagus. Avaritia umquam vultuosus. Vacuus ambitus abbas. Deprimo speculum saepe. Curtus cupressus suscipit. Debilito dolorem arma. Fuga terga universe. Absum harum tenuis. Capitulus delibero adeptio. Unde vis venia. Cattus cur derelinquo. Reprehenderit esse degero. Tondeo appono conscendo. Corrupti nihil absorbeo. Sonitus vicissitudo vigilo.",
      "created_at": "2020-10-21T03:50:04.927+05:30",
      "updated_at": "2020-10-21T03:50:04.927+05:30"
    },
    {
      "id": 18,
      "user_id": 26,
      "title": "Abutor tunc nam ustulo utique ubi convoco tibi est cultellus amet.",
      "body": "Spectaculum quibusdam caelum. Ut cavus cedo. Attollo tempore nihil. Arbor calcar charisma. Maxime corrumpo conduco. Modi inflammatio canto. Et studio qui. Vir blandior commodi. Assentator cibus ait. Undique universe dedico. Adsuesco cibo dapifer. Casus cumque pax. Compello cupiditas eius. Decor odit pauci. Est crur rem. Defluo supellex ultra. Tutis tribuo caput. Virgo apto comburo. Claro patior in. Ullus alii id. Cotidie bis voveo. Terebro terga spectaculum.",
      "created_at": "2020-10-21T03:50:04.932+05:30",
      "updated_at": "2020-10-21T03:50:04.932+05:30"
    },
    {
      "id": 19,
      "user_id": 28,
      "title": "Vetus celebrer talio defendo turba stabilis decumbo odit cuius defero amoveo ut bos accedo cinis.",
      "body": "Tollo peccatus nihil. Sequi thorax adflicto. Impedit autus nostrum. Alii audeo autem. Quia textor convoco. Cicuta sordeo teneo. Impedit angustus in. Careo combibo videlicet. Dolor cui amoveo. Alius vitae audentia. Autem subnecto vix. At capitulus voluptatem. Pecus desino quidem. Vel tandem officia. Celer solitudo aestus. Iusto recusandae aurum. Deripio nemo acer. Degenero cimentarius stillicidium. Admiratio cicuta volaticus. Veritatis cubitum vero. Sto varietas explicabo. Urbs nam et. Cernuus rerum tandem. Cui est deludo. Uter tabesco vilitas.",
      "created_at": "2020-10-21T03:50:04.959+05:30",
      "updated_at": "2020-10-21T03:50:04.959+05:30"
    },
    {
      "id": 20,
      "user_id": 29,
      "title": "Tamdiu ago bellicus abscido volutabrum territo velum eos molestiae adhaero tunc veniam tricesimus temporibus.",
      "body": "Aut adicio tandem. Trepide ulterius carus. Demens audentia vilis. Voluptatem omnis velum. Censura toties demo. Verus utilis soleo. Defendo stipes abbas. Substantia spargo minus. Ustilo vigor varius. Dapifer iste aveho. Tredecim sequi cometes. Aut qui correptius. Omnis decet vos. Basium perspiciatis adaugeo. Totam asporto cultellus.",
      "created_at": "2020-10-21T03:50:04.976+05:30",
      "updated_at": "2020-10-21T03:50:04.976+05:30"
    },
    {
      "id": 21,
      "user_id": 29,
      "title": "Defleo compono bardus velit agnosco desipio custodia.",
      "body": "Quia alias canonicus. Crudelis attollo aetas. Una adimpleo triginta. Virga caute apto. Custodia bis dens. Adulatio sulum audio. Ducimus aedificium incidunt. Hic magnam terminatio. Denique abstergo candidus. Assentator ademptio arbor. Ver tredecim vaco. Pectus vulnus tener. Saepe utor possimus. Bellicus urbs sumptus. Curiositas dicta recusandae. Currus assumenda sui. Dolores cetera sum. Cornu succurro natus. Velut thesis auctus. Aeneus ipsam ullam. Adversus absconditus aut. Certo ait est. Earum congregatio adiuvo. Creptio speculum angulus. Ipsum amet facilis. Adamo somnus casso.",
      "created_at": "2020-10-21T03:50:04.986+05:30",
      "updated_at": "2020-10-21T03:50:04.986+05:30"
    },
    {
      "id": 22,
      "user_id": 30,
      "title": "Sopor terebro est velut ducimus iure non despirmatio vos congregatio.",
      "body": "Vorax surculus est. Impedit deporto universe. Demum aer illum. Natus est omnis. Video placeat minus. Denique omnis pel. Civitas terra tam. Dignissimos decretum vulpes. Colloco alter cuppedia. Aeternus aut trado. Totam totus conforto. Aperte suffoco auditor. Cursus demulceo adnuo. Armo eaque ultio. Considero vinculum soluta. Amaritudo rerum enim. Viscus uredo harum. Labore illo molestias. Substantia agnosco rem. Videlicet sortitus tolero. Clarus vero cedo. Facere facilis cresco. Cavus color tabesco. Sumo accipio tyrannus. Tricesimus voluptates ustilo. Accipio ipsam magni. Solum depereo veritas. Venustas ager ocer.",
      "created_at": "2020-10-21T03:50:05.006+05:30",
      "updated_at": "2020-10-21T03:50:05.006+05:30"
    },
    {
      "id": 23,
      "user_id": 30,
      "title": "Corroboro truculenter delicate culpo alioqui spiritus aeger sursum bonus.",
      "body": "Decor aliquid unde. Porro virgo tertius. Vilicus vulgus basium. Depraedor reiciendis sollers. Deputo eos magnam. Sponte adversus despirmatio. Caveo cumque sophismata. Carus depereo decens. Amet tunc traho. Cerno eos expedita. Vulgo tero quia. Cum veritas conicio. Curia validus surculus. Curriculum sol sono. Porro aptus dolores. Sunt appello allatus. Versus et cupiditas. Territo abscido patior. Cura spiritus aut. Confero expedita defleo. Tonsor aiunt talis. Aut minus claudeo. Careo vitiosus curso. Canonicus voluptatem agnitio. Caterva acies admitto.",
      "created_at": "2020-10-21T03:50:05.016+05:30",
      "updated_at": "2020-10-21T03:50:05.016+05:30"
    },
    {
      "id": 24,
      "user_id": 31,
      "title": "Communis incidunt totam ducimus accendo debilito.",
      "body": "Adsum uredo suffoco. Advenio aduro vorax. Certus arx aliquam. Pecunia aiunt voluptas. Venustas timidus videlicet. Currus armo architecto. Sufficio ea balbus. Ceno aequitas vaco. Dignissimos tremo tertius. Avoco coruscus dolores. Chirographum dolor vester. Et compello stillicidium. Vitiosus verbum angustus. Cras summisse tergum. Candidus vivo molestiae. Umquam amo audio. Ut numquam coaegresco. Vicissitudo vester volup. Caterva omnis vulpes. Comis claudeo arcesso. Cariosus quisquam attero. Surgo adipiscor clibanus. Claro vilitas ambulo. Appono cimentarius est. Depraedor architecto tremo. Vae baiulus sed. Cognatus eos recusandae. Umerus tutis viduata. Ademptio defero coniuratio.",
      "created_at": "2020-10-21T03:50:05.035+05:30",
      "updated_at": "2020-10-21T03:50:05.035+05:30"
    },
    {
      "id": 25,
      "user_id": 34,
      "title": "Complectus vallum aestas contego esse depraedor.",
      "body": "Deorsum nemo rerum. Aperte arca clarus. Uxor eos vehemens. Talus ambulo ocer. Ambulo teneo rerum. Patior tutamen comedo. Asperiores amplexus tero. Colligo adipiscor argentum. Peccatus inflammatio totus. Acquiro ventito debilito. Auxilium admitto articulus. Ventosus voluptatem decretum. Tantillus vox trucido. Truculenter dicta unde. Agnosco tergeo viscus. Baiulus eum ancilla.",
      "created_at": "2020-10-21T03:50:05.061+05:30",
      "updated_at": "2020-10-21T03:50:05.061+05:30"
    },
    {
      "id": 26,
      "user_id": 35,
      "title": "Aureus certo amiculum ocer ventus consequuntur aro correptius usitas crebro curatio dolorem torrens campana ascit.",
      "body": "Dolores adaugeo enim. Quisquam sui ea. Vehemens adicio tutamen. Decimus sunt hic. Animus ea teres. Sint antepono summisse. Cibus sum vilitas. Omnis cilicium desidero. Sollicito arto debilito. Candidus turba clam. Curriculum conventus fuga. Omnis umquam qui. Canis certus succurro. Aestas error assentator. Bardus adaugeo voluptatum. Currus deduco vitae. Peior voluptatum succurro. Tabella capillus cras. Cariosus causa apud.",
      "created_at": "2020-10-21T03:50:05.081+05:30",
      "updated_at": "2020-10-21T03:50:05.081+05:30"
    },
    {
      "id": 28,
      "user_id": 36,
      "title": "Custodia sit alioqui vae tepidus conturbo nesciunt neque vestigium sumo careo.",
      "body": "Supplanto xiphias vitae. Solum carcer advenio. Ascisco trans sodalitas. Absorbeo apparatus commemoro. Sto commodo crapula. Decretum vesco claudeo. Corroboro adsuesco amplitudo. Consequuntur volubilis rerum. Alo sumo suppellex. Voluptates thermae nesciunt. Adhuc labore textus. Temptatio vester acer. Consectetur crux ventito. Accendo crudelis tutamen. Trepide tabesco vomer. Speculum vero theatrum. Usque pecco quam. Depono decimus brevis.",
      "created_at": "2020-10-21T03:50:05.101+05:30",
      "updated_at": "2020-10-21T03:50:05.101+05:30"
    },
    {
      "id": 29,
      "user_id": 36,
      "title": "Canto antepono creber sortitus aut vilicus atrocitas voluptas constans.",
      "body": "Amaritudo et rerum. Cogo acsi suscipit. Tepidus adsidue votum. Admoveo conqueror asper. Crastinus vaco aspicio. Arbor perspiciatis taceo. Clam arbitro conventus. Asporto vallum tyrannus. Patrocinor ambitus absum. Autem amplus vultuosus. Pectus carus vilitas. Conitor neque theatrum. Nam carbo quo. Urbs vel texo. Adaugeo tyrannus alias. Degero vis aut. Pauper fuga cohors. Abundans atavus peior. Conservo eum tot.",
      "created_at": "2020-10-21T03:50:05.109+05:30",
      "updated_at": "2020-10-21T03:50:05.109+05:30"
    },
    {
      "id": 31,
      "user_id": 37,
      "title": "Et ea vindico vulnero uter summopere appello tres utrum cernuus ubi demoror aveho callide thalassinus cotidie.",
      "body": "Aeneus talus eum. Ante charisma cohaero. Adiuvo demitto commodi. Solitudo decipio curia. Coma caste quidem. Beneficium reprehenderit iusto. Verbum caritas surculus. Socius sed solus. Tabernus addo textilis. Speciosus communis benevolentia. Ut delego delinquo. Arguo cognomen animus. Tenax terreo capitulus. Adfero subito repudiandae. Titulus inflammatio copiose. Cavus aequitas denuo. Vestrum libero dolor. Est creptio ventus. Consuasor vultuosus alii. Ademptio asperiores ambulo. Templum velut capio.",
      "created_at": "2020-10-21T03:50:05.125+05:30",
      "updated_at": "2020-10-21T03:50:05.125+05:30"
    },
    {
      "id": 32,
      "user_id": 39,
      "title": "Complectus veniam corona ancilla coadunatio appono uberrime vilicus aro caelestis comes peccatus apto uxor virtus animus thesaurus soluta coniuratio.",
      "body": "Clam volubilis demens. Curo dolorem vobis. Turpis cognatus viduata. Caveo testimonium angulus. Verumtamen stultus verus. Crinis temporibus utroque. Triumphus vitiosus amissio. Et complectus eos. Aperte terreo caries. Quas adamo truculenter. Veritas consequatur dedecor. Apto conitor aestas. Quas angelus ancilla. Stips crux animi. Suffoco tenetur textus. Ut corona curvo. Territo assentator tot. Confero utrum amaritudo. Cornu subseco combibo. Agnosco dolores tepidus. Vicissitudo bis tubineus. Denique demum argumentum. Sed vel supellex. Viscus adflicto assentator. Acerbitas urbs supplanto. Vereor convoco caute. Valens omnis cimentarius.",
      "created_at": "2020-10-21T03:50:05.146+05:30",
      "updated_at": "2020-10-21T03:50:05.146+05:30"
    },
    {
      "id": 33,
      "user_id": 40,
      "title": "Vindico comburo caecus libero reiciendis auctor tabula theologus civis tracto concido animus sublime omnis adsidue caelum.",
      "body": "Texo repellendus vae. Temeritas ventus angelus. Combibo angustus angelus. Cunctatio succurro uberrime. Non solitudo summopere. Comptus venustas voluptatibus. Cohors deporto rerum. Decet viduo voluptatem. Et triginta blandior. Tego audentia comburo. Omnis baiulus ullam. Usus abstergo praesentium. Aggredior defleo conqueror. Exercitationem aer sodalitas. Debeo victus aliquid. Callide clarus quas. Agnosco acer tantum. Civis canto defungo.",
      "created_at": "2020-10-21T03:50:05.161+05:30",
      "updated_at": "2020-10-21T03:50:05.161+05:30"
    },
    {
      "id": 34,
      "user_id": 44,
      "title": "Via rerum coruscus venia teneo vaco dolor vulgaris temeritas suscipio compono.",
      "body": "Verumtamen tego praesentium. Brevis accusantium umerus. Blandior videlicet cedo. Caecus vehemens colligo. Venia cauda alveus. Succedo capillus arbitro. Validus deripio victoria. Absconditus vester peior. Alioqui cupiditate angustus. Denuncio deputo averto. Cuius voluptatibus denuo. Abeo curtus eaque. Audentia ea usque. Aestivus curriculum validus. Ago comburo tepidus. Canis testimonium volo. Una dolore amplitudo. Cilicium amiculum amaritudo. Occaecati molestiae vergo. Desino denego testimonium. Abduco subseco thermae.",
      "created_at": "2020-10-21T03:50:05.193+05:30",
      "updated_at": "2020-10-21T03:50:05.193+05:30"
    },
    {
      "id": 35,
      "user_id": 47,
      "title": "Altus amoveo clibanus asper saepe tubineus magni civitas vallum tyrannus sopor terga rem vetus conspergo caput quis autem causa.",
      "body": "Vito terminatio bene. Capitulus sum cognomen. Culpa expedita curtus. Patrocinor bene admiratio. Vociferor agnosco amplitudo. Textilis facere ara. Volutabrum curriculum contego. Amiculum turpis doloribus. Stabilis pecus cervus. Solitudo via canto. Delego altus magnam. Asperiores sonitus capio. Trans caute copia. Denique odio aut. Distinctio unde claro. Suscipit recusandae sulum. Doloribus umbra alias. Super tutamen curvus. Colligo cursus arcesso.",
      "created_at": "2020-10-21T03:50:05.223+05:30",
      "updated_at": "2020-10-21T03:50:05.223+05:30"
    },
    {
      "id": 36,
      "user_id": 47,
      "title": "Tunc decens audentia amicitia aduro consequatur animi sollicito vir traho termes arma aut conitor teneo celer.",
      "body": "Dolores corrigo bos. Soleo compello talis. Traho sperno valens. Caute consuasor xiphias. Beatae volva suscipio. Versus alo facere. Minima defleo non. Vae agnitio spoliatio. Bonus tremo enim. Excepturi spargo amiculum. Minima aut vulnus. Ars soluta quia. Consequuntur administratio clibanus. Delibero utor complectus. Valde volutabrum apostolus. Vero aegre subnecto. Cotidie capitulus tracto. Vel allatus paens. Absque totidem quod.",
      "created_at": "2020-10-21T03:50:05.233+05:30",
      "updated_at": "2020-10-21T03:50:05.233+05:30"
    }
  ]
}
