{
  "repo": "TypeScript",
  "type": "json",
  "code": 200,
  "meta": {
    "pagination": { "total": 1868, "pages": 94, "page": 1, "limit": 20 }
  },
  "data": [
    {
      "id": 6,
      "name": "Hari Chattopadhyay",
      "email": "chattopadhyay_hari@towne.name",
      "gender": "Male",
      "status": "Inactive",
      "created_at": "2020-10-21T03:50:04.649+05:30",
      "updated_at": "2020-10-21T19:54:05.032+05:30"
    },
    {
      "id": 7,
      "name": "Anunay Reddy",
      "email": "anunay_reddy@goldner.com",
      "gender": "Male",
      "status": "Inactive",
      "created_at": "2020-10-21T03:50:04.681+05:30",
      "updated_at": "2020-10-21T03:50:04.681+05:30"
    },
    {
      "id": 8,
      "name": "Kalinda Dwivedi PhD",
      "email": "phd_dwivedi_kalinda@waters.info",
      "gender": "Female",
      "status": "Active",
      "created_at": "2020-10-21T03:50:04.686+05:30",
      "updated_at": "2020-10-21T03:50:04.686+05:30"
    },
    {
      "id": 9,
      "name": "Preity Singh DO",
      "email": "singh_preity_do@doyle.net",
      "gender": "Female",
      "status": "Active",
      "created_at": "2020-10-21T03:50:04.690+05:30",
      "updated_at": "2020-10-21T03:50:04.690+05:30"
    },
    {
      "id": 10,
      "name": "Trilochana Sinha",
      "email": "sinha_trilochana@langworth-mohr.info",
      "gender": "Male",
      "status": "Inactive",
      "created_at": "2020-10-21T03:50:04.714+05:30",
      "updated_at": "2020-10-21T03:50:04.714+05:30"
    },
    {
      "id": 11,
      "name": "Saroja Malik",
      "email": "saroja_malik@maggio-connelly.com",
      "gender": "Male",
      "status": "Active",
      "created_at": "2020-10-21T03:50:04.728+05:30",
      "updated_at": "2020-10-21T03:50:04.728+05:30"
    },
    {
      "id": 12,
      "name": "Shrishti Malik",
      "email": "malik_shrishti@medhurst.com",
      "gender": "Male",
      "status": "Active",
      "created_at": "2020-10-21T03:50:04.737+05:30",
      "updated_at": "2020-10-21T03:50:04.737+05:30"
    },
    {
      "id": 13,
      "name": "Rev. Bankimchandra Tandon",
      "email": "tandon_bankimchandra_rev@blanda-cormier.net",
      "gender": "Female",
      "status": "Active",
      "created_at": "2020-10-21T03:50:04.742+05:30",
      "updated_at": "2020-10-21T03:50:04.742+05:30"
    },
    {
      "id": 14,
      "name": "Menaka Mishra",
      "email": "menaka_mishra@turner-hodkiewicz.biz",
      "gender": "Female",
      "status": "Inactive",
      "created_at": "2020-10-21T03:50:04.746+05:30",
      "updated_at": "2020-10-21T03:50:04.746+05:30"
    },
    {
      "id": 15,
      "name": "Narendra Panicker VM",
      "email": "panicker_vm_narendra@dietrich.io",
      "gender": "Female",
      "status": "Inactive",
      "created_at": "2020-10-21T03:50:04.749+05:30",
      "updated_at": "2020-10-21T03:50:04.749+05:30"
    },
    {
      "id": 16,
      "name": "Goswami Sharma",
      "email": "sharma_goswami@robel.net",
      "gender": "Male",
      "status": "Inactive",
      "created_at": "2020-10-21T03:50:04.770+05:30",
      "updated_at": "2020-10-21T03:50:04.770+05:30"
    },
    {
      "id": 17,
      "name": "Chakrika Gowda",
      "email": "gowda_chakrika@anderson-yost.io",
      "gender": "Male",
      "status": "Active",
      "created_at": "2020-10-21T03:50:04.800+05:30",
      "updated_at": "2020-10-21T03:50:04.800+05:30"
    },
    {
      "id": 18,
      "name": "Rupinder Pandey",
      "email": "pandey_rupinder@schowalter.name",
      "gender": "Female",
      "status": "Active",
      "created_at": "2020-10-21T03:50:04.813+05:30",
      "updated_at": "2020-10-21T03:50:04.813+05:30"
    },
    {
      "id": 19,
      "name": "Mr. Ernest",
      "email": "mr_sarvin_guha@spinka.org",
      "gender": "Female",
      "status": "Inactive",
      "created_at": "2020-10-21T03:50:04.822+05:30",
      "updated_at": "2020-10-21T13:21:18.154+05:30"
    },
    {
      "id": 20,
      "name": "Jyoti Mehra",
      "email": "jyoti_mehra@champlin-mccullough.net",
      "gender": "Male",
      "status": "Active",
      "created_at": "2020-10-21T03:50:04.838+05:30",
      "updated_at": "2020-10-21T03:50:04.838+05:30"
    },
    {
      "id": 23,
      "name": "Saraswati Guneta",
      "email": "saraswati_guneta@kreiger.info",
      "gender": "Female",
      "status": "Active",
      "created_at": "2020-10-21T03:50:04.876+05:30",
      "updated_at": "2020-10-21T03:50:04.876+05:30"
    },
    {
      "id": 24,
      "name": "Malti Devar",
      "email": "devar_malti@rempel.net",
      "gender": "Male",
      "status": "Inactive",
      "created_at": "2020-10-21T03:50:04.904+05:30",
      "updated_at": "2020-10-21T03:50:04.904+05:30"
    },
    {
      "id": 25,
      "name": "Amb. Devasree Khatri",
      "email": "khatri_amb_devasree@corwin.org",
      "gender": "Female",
      "status": "Active",
      "created_at": "2020-10-21T03:50:04.912+05:30",
      "updated_at": "2020-10-21T03:50:04.912+05:30"
    },
    {
      "id": 26,
      "name": "Washington Luis Cabral da Silva",
      "email": "wluissilva@live.com",
      "gender": "Male",
      "status": "Active",
      "created_at": "2020-10-21T03:50:04.921+05:30",
      "updated_at": "2020-10-21T08:36:39.505+05:30"
    },
    {
      "id": 27,
      "name": "Prof. Shreya Ganaka",
      "email": "ganaka_shreya_prof@labadie.net",
      "gender": "Male",
      "status": "Inactive",
      "created_at": "2020-10-21T03:50:04.949+05:30",
      "updated_at": "2020-10-21T03:50:04.949+05:30"
    },
    {
      "id": 28,
      "name": "Varalakshmi Khatri",
      "email": "varalakshmi_khatri@abshire-lang.io",
      "gender": "Male",
      "status": "Inactive",
      "created_at": "2020-10-21T03:50:04.952+05:30",
      "updated_at": "2020-10-21T03:50:04.952+05:30"
    },
    {
      "id": 29,
      "name": "Devi Ahluwalia",
      "email": "ahluwalia_devi@west.biz",
      "gender": "Male",
      "status": "Inactive",
      "created_at": "2020-10-21T03:50:04.971+05:30",
      "updated_at": "2020-10-21T03:50:04.971+05:30"
    },
    {
      "id": 30,
      "name": "Purushottam Nambeesan",
      "email": "purushottam_nambeesan@bashirian-zulauf.info",
      "gender": "Male",
      "status": "Active",
      "created_at": "2020-10-21T03:50:04.999+05:30",
      "updated_at": "2020-10-21T03:50:04.999+05:30"
    },
    {
      "id": 31,
      "name": "Apsara Somayaji",
      "email": "apsara_somayaji@ratke.com",
      "gender": "Female",
      "status": "Active",
      "created_at": "2020-10-21T03:50:05.024+05:30",
      "updated_at": "2020-10-21T03:50:05.024+05:30"
    },
    {
      "id": 32,
      "name": "Eekalabya Menon",
      "email": "eekalabya_menon@sipes-anderson.net",
      "gender": "Male",
      "status": "Active",
      "created_at": "2020-10-21T03:50:05.041+05:30",
      "updated_at": "2020-10-21T03:50:05.041+05:30"
    },
    {
      "id": 34,
      "name": "Uttam Dhawan Ret.",
      "email": "uttam_ret_dhawan@mayer.name",
      "gender": "Female",
      "status": "Active",
      "created_at": "2020-10-21T03:50:05.057+05:30",
      "updated_at": "2020-10-21T03:50:05.057+05:30"
    },
    {
      "id": 35,
      "name": "Miss Sujata Somayaji",
      "email": "sujata_miss_somayaji@graham-funk.org",
      "gender": "Male",
      "status": "Active",
      "created_at": "2020-10-21T03:50:05.075+05:30",
      "updated_at": "2020-10-21T03:50:05.075+05:30"
    },
    {
      "id": 36,
      "name": "Sarla Patil VM",
      "email": "sarla_vm_patil@hills-donnelly.biz",
      "gender": "Female",
      "status": "Inactive",
      "created_at": "2020-10-21T03:50:05.096+05:30",
      "updated_at": "2020-10-21T03:50:05.096+05:30"
    },
    {
      "id": 37,
      "name": "Aanandinii Ahuja",
      "email": "ahuja_aanandinii@gusikowski.name",
      "gender": "Female",
      "status": "Active",
      "created_at": "2020-10-21T03:50:05.115+05:30",
      "updated_at": "2020-10-21T03:50:05.115+05:30"
    },
    {
      "id": 38,
      "name": "Anuja Gandhi",
      "email": "anuja_gandhi@bahringer-auer.com",
      "gender": "Male",
      "status": "Active",
      "created_at": "2020-10-21T03:50:05.133+05:30",
      "updated_at": "2020-10-21T03:50:05.133+05:30"
    },
    {
      "id": 39,
      "name": "Himadri Nehru",
      "email": "himadri_nehru@bashirian.io",
      "gender": "Male",
      "status": "Inactive",
      "created_at": "2020-10-21T03:50:05.140+05:30",
      "updated_at": "2020-10-21T03:50:05.140+05:30"
    },
    {
      "id": 40,
      "name": "Ms. Murphy Quitzon",
      "email": "Samir.Lowe@gmail.com",
      "gender": "Male",
      "status": "Active",
      "created_at": "2020-10-21T03:50:05.156+05:30",
      "updated_at": "2020-10-21T08:36:25.610+05:30"
    },
    {
      "id": 41,
      "name": "Miss Abani Malik",
      "email": "malik_miss_abani@goyette.io",
      "gender": "Male",
      "status": "Active",
      "created_at": "2020-10-21T03:50:05.167+05:30",
      "updated_at": "2020-10-21T03:50:05.167+05:30"
    },
    {
      "id": 42,
      "name": "Shakti Adiga",
      "email": "shakti_adiga@wuckert.co",
      "gender": "Male",
      "status": "Active",
      "created_at": "2020-10-21T03:50:05.171+05:30",
      "updated_at": "2020-10-21T03:50:05.171+05:30"
    },
    {
      "id": 43,
      "name": "Gurdev Bandopadhyay",
      "email": "bandopadhyay_gurdev@collins.co",
      "gender": "Male",
      "status": "Inactive",
      "created_at": "2020-10-21T03:50:05.180+05:30",
      "updated_at": "2020-10-21T03:50:05.180+05:30"
    },
    {
      "id": 44,
      "name": "Sunita Ganaka",
      "email": "ganaka_sunita@volkman.name",
      "gender": "Male",
      "status": "Active",
      "created_at": "2020-10-21T03:50:05.187+05:30",
      "updated_at": "2020-10-21T03:50:05.187+05:30"
    },
    {
      "id": 45,
      "name": "Somnath Ahuja",
      "email": "ahuja_somnath@gutkowski-kautzer.org",
      "gender": "Female",
      "status": "Active",
      "created_at": "2020-10-21T03:50:05.204+05:30",
      "updated_at": "2020-10-21T03:50:05.204+05:30"
    },
    {
      "id": 46,
      "name": "Amb. Drona Arora",
      "email": "amb_arora_drona@rath.co",
      "gender": "Female",
      "status": "Inactive",
      "created_at": "2020-10-21T03:50:05.210+05:30",
      "updated_at": "2020-10-21T03:50:05.210+05:30"
    },
    {
      "id": 47,
      "name": "Fr. Tara Deshpande",
      "email": "tara_fr_deshpande@howe.com",
      "gender": "Male",
      "status": "Inactive",
      "created_at": "2020-10-21T03:50:05.218+05:30",
      "updated_at": "2020-10-21T03:50:05.218+05:30"
    },
    {
      "id": 48,
      "name": "Menaka Kaul Esq.",
      "email": "kaul_menaka_esq@smith.info",
      "gender": "Male",
      "status": "Inactive",
      "created_at": "2020-10-21T03:50:05.246+05:30",
      "updated_at": "2020-10-21T03:50:05.246+05:30"
    }
  ]
}
